…
## 2. Somali students transformed Minneapolis schools

Minneapolis has one of the largest Somali populations in the United
States, fundamentally changing the city’s schools over two decades.
Black students now make up approximately 35% of Minneapolis enrollment.

``` r
enr %>%
  filter(is_district, grepl("Minneapolis", district_name),
         !grepl("Special", district_name),
         grade_level == "TOTAL",
         subgroup %in% c("white", "black", "hispanic", "asian")) %>%
  mutate(pct = round(pct * 100, 1)) %>%
  select(end_year, subgroup, pct)
#> # A tibble: 40 × 3
#>    end_year subgroup   pct
#>       <dbl> <chr>    <dbl>
#>  1     2015 asian      8.7
#>  2     2015 black     36.8
#>  3     2015 hispanic  12  
#>  4     2015 white     30.2
#>  5     2016 asian     10.6
#>  6     2016 black     32.6
#>  7     2016 hispanic  16.7
#>  8     2016 white     33.6
#>  9     2017 asian      9.5
#> 10     2017 black     31.6
#> # ℹ 30 more rows
```
…
## 4. Suburban ring is booming

While Minneapolis and St. Paul shrink, the suburban ring continues to
grow. Districts like Anoka-Hennepin (the state’s largest), Lakeville,
and Rosemount-Apple Valley-Eagan have absorbed families leaving the
urban core.

``` r
enr %>%
  filter(is_district,
         grepl("Anoka-Hennepin|Lakeville|Rosemount|Prior Lake", district_name),
         subgroup == "total_enrollment", grade_level == "TOTAL") %>%
  select(end_year, district_name, n_students)
#> # A tibble: 40 × 3
#>    end_year district_name                               n_students
#>       <dbl> <chr>                                            <dbl>
#>  1     2015 Anoka-Hennepin Public Schools                    37500
#>  2     2015 Lakeville Area Public Schools                    11500
#>  3     2015 Prior Lake-Savage Area Schools                    9000
#>  4     2015 Rosemount-Apple Valley-Eagan Public Schools      28000
#>  5     2016 Anoka-Hennepin Public Schools                    37974
#>  6     2016 Lakeville Area Public Schools                    11668
#>  7     2016 Prior Lake-Savage Area Schools                    9109
#>  8     2016 Rosemount-Apple Valley-Eagan Public Schools      28326
#>  9     2017 Anoka-Hennepin Public Schools                    38260
#> 10     2017 Lakeville Area Public Schools                    11554
#> # ℹ 30 more rows
```
…
## 5. Minnesota is diversifying fast

From 85% white in 2007 to under 70% today, Minnesota is experiencing one
of the fastest demographic shifts in the Midwest. Hispanic and Asian
populations are growing rapidly, while the white student share declines.

``` r
enr %>%
  filter(is_state, grade_level == "TOTAL",
         subgroup %in% c("white", "black", "hispanic", "asian")) %>%
  mutate(pct = round(pct * 100, 1)) %>%
  select(end_year, subgroup, pct)
#> # A tibble: 40 × 3
#>    end_year subgroup   pct
#>       <dbl> <chr>    <dbl>
#>  1     2015 asian      4.9
#>  2     2015 black      9.5
#>  3     2015 hispanic   6.3
#>  4     2015 white     43.6
#>  5     2016 asian      5.2
#>  6     2016 black     10  
#>  7     2016 hispanic   6.2
#>  8     2016 white     44.5
#>  9     2017 asian      4.4
#> 10     2017 black      9.3
#> # ℹ 30 more rows
```
…
## 6. COVID hit kindergarten hard

The pandemic caused an 8% drop in Minnesota kindergarten enrollment in
2021 - nearly 5,000 fewer children. This “COVID cohort” is smaller than
surrounding grades as it moves through the system.

``` r
enr %>%
  filter(is_state, subgroup == "total_enrollment",
         grade_level %in% c("K", "01", "06", "12")) %>%
  select(end_year, grade_level, n_students)
#> # A tibble: 40 × 3
#>    end_year grade_level n_students
#>       <dbl> <chr>            <dbl>
#>  1     2015 01               16960
#>  2     2015 06               18092
#>  3     2015 12               15831
#>  4     2015 K                15831
#>  5     2016 01               16866
#>  6     2016 06               17991
#>  7     2016 12               15743
#>  8     2016 K                15743
#>  9     2017 01               16805
#> 10     2017 06               17922
#> # ℹ 30 more rows
```
…
